Exploring the BRFSS data
…
Then we can again check our work by exploring the groupings in a View:

brfss2013 %>%
  group_by(income2,children_having,scntmony) %>%
  summarise(n=n())

## `summarise()` regrouping output by 'income2', 'children_having' (override with `.groups` argument)

## # A tibble: 126 x 4
## # Groups:   income2, children_having [24]
##    income2           children_having scntmony      n
##    <fct>             <chr>           <fct>     <int>
##  1 Less than $10,000 no              Always      584
##  2 Less than $10,000 no              Usually     189
##  3 Less than $10,000 no              Sometimes   517
##  4 Less than $10,000 no              Rarely      194
##  5 Less than $10,000 no              Never       707
##  6 Less than $10,000 no              <NA>      16974
##  7 Less than $10,000 yes             Always      221
##  8 Less than $10,000 yes             Usually      91
##  9 Less than $10,000 yes             Sometimes   157
## 10 Less than $10,000 yes             Rarely       54
## #  with 116 more rows

brfss2013 %>%
  group_by(income_degree,children_having,scntmony) %>%
  summarise(n=n())

## `summarise()` regrouping output by 'income_degree', 'children_having' (override with `.groups` argument)

## # A tibble: 34 x 4
## # Groups:   income_degree, children_having [6]
##    income_degree   children_having scntmony       n
##    <chr>           <chr>           <fct>      <int>
##  1 less than 75000 no              Always      2857
##  2 less than 75000 no              Usually     1430
##  3 less than 75000 no              Sometimes   5306
##  4 less than 75000 no              Rarely      4374
##  5 less than 75000 no              Never      14628
##  6 less than 75000 no              <NA>      200939
##  7 less than 75000 yes             Always      1453
##  8 less than 75000 yes             Usually      863
##  9 less than 75000 yes             Sometimes   2431
## 10 less than 75000 yes             Rarely      1669
## #  with 24 more rows
…
Also, we can get the specific numbers about counts of times. For the remaining two digits are the days. Here we can also generate a new variable called greendays.

brfss2013 <- brfss2013 %>%
  mutate(greendays = fvgreen - (fvgreen %/% 100)*100)

An easy way of tabulating these data to see how many times each level of is to use the group_by() function along with the summarise() command:

brfss2013 %>%
  filter(!is.na(fvgreen)) %>%
  group_by(fre_green,greendays) %>%
  summarise(n = n())

## `summarise()` regrouping output by 'fre_green' (override with `.groups` argument)

## # A tibble: 125 x 3
## # Groups:   fre_green [3]
##    fre_green greendays     n
##    <chr>         <dbl> <int>
##  1 per day           0 29950
##  2 per day           1 54633
##  3 per day           2 15446
##  4 per day           3  3045
##  5 per day           4   700
##  6 per day           5   517
##  7 per day           6    52
##  8 per day           7    55
##  9 per day           8     9
## 10 per day           9     4
## #  with 115 more rows
…
brfss2013 <- brfss2013 %>%
  mutate(fvgreen_scaled = round(ifelse((fvgreen >= 101) & (fvgreen <= 199),(fvgreen - 100) * 30 ,ifelse((fvgreen >= 201) & (fvgreen <= 299),(fvgreen - 200)/7 * 30,ifelse((fvgreen >= 301) & (fvgreen <= 399),fvgreen-300,fvgreen)))),0)

We can also check the outcome by using group by and summarise function.

brfss2013 %>%
  filter(!is.na(fvgreen_scaled)) %>%
  group_by(fvgreen_scaled) %>%
  summarise(n = n())

## `summarise()` ungrouping output (override with `.groups` argument)

## # A tibble: 103 x 2
##    fvgreen_scaled     n
##             <dbl> <int>
##  1              0 29950
##  2              1  8326
##  3              2 13651
##  4              3 10266
##  5              4 36127
##  6              5 13153
##  7              6  5375
##  8              7  3427
##  9              8  4092
## 10              9 35174
## #  with 93 more rows
…
To view and summarize the variables we just calculated.

brfss2013 %>%
  group_by(fvgreen_scaled,X_bmi5cat) %>%
  summarise(n = n())

## `summarise()` regrouping output by 'fvgreen_scaled' (override with `.groups` argument)

## # A tibble: 356 x 3
## # Groups:   fvgreen_scaled [104]
##    fvgreen_scaled X_bmi5cat         n
##             <dbl> <fct>         <int>
##  1              0 Underweight     690
##  2              0 Normal weight  8169
##  3              0 Overweight     9841
##  4              0 Obese         10009
##  5              0 <NA>           1241
##  6              1 Underweight     169
##  7              1 Normal weight  2198
##  8              1 Overweight     2833
##  9              1 Obese          2819
## 10              1 <NA>            307
## #  with 346 more rows

If we filter all missing values:

brfss2013 %>%
  filter(!is.na(fvgreen_scaled)) %>%
  filter(!is.na(X_bmi5cat)) %>%
  group_by(fvgreen_scaled,X_bmi5cat) %>%
  summarise(n = n())

## `summarise()` regrouping output by 'fvgreen_scaled' (override with `.groups` argument)

## # A tibble: 296 x 3
## # Groups:   fvgreen_scaled [100]
##    fvgreen_scaled X_bmi5cat         n
##             <dbl> <fct>         <int>
##  1              0 Underweight     690
##  2              0 Normal weight  8169
##  3              0 Overweight     9841
##  4              0 Obese         10009
##  5              1 Underweight     169
##  6              1 Normal weight  2198
##  7              1 Overweight     2833
##  8              1 Obese          2819
##  9              2 Underweight     243
## 10              2 Normal weight  3675
## #  with 286 more rows
…
## 'data.frame':    420349 obs. of  2 variables:
##  $ X_state : Factor w/ 55 levels "0","Alabama",..: 2 2 2 2 2 2 2 2 2 2 ...
##  $ hlthpln1: Factor w/ 2 levels "Yes","No": 1 1 1 1 1 1 1 1 1 1 ...

Second, we can filter all the missing values, and to summarize the occurances of each level with group_by() and summarise().

brfss2013 %>%
  filter(!is.na(X_state)) %>%
  filter(!is.na(hlthpln1)) %>%
  group_by(X_state,hlthpln1) %>%
  summarise(n = n())

## `summarise()` regrouping output by 'X_state' (override with `.groups` argument)

## # A tibble: 106 x 3
## # Groups:   X_state [53]
##    X_state    hlthpln1     n
##    <fct>      <fct>    <int>
##  1 Alabama    Yes       4556
##  2 Alabama    No         581
##  3 Alaska     Yes       3530
##  4 Alaska     No         629
##  5 Arizona    Yes       3162
##  6 Arizona    No         465
##  7 Arkansas   Yes       3710
##  8 Arkansas   No         659
##  9 California Yes       8991
## 10 California No        1415
## #  with 96 more rows
…
  coverage <- brfss2013 %>%
  filter(!is.na(hlthpln1)) %>%
  group_by(X_state,hlthpln1) %>%
  summarise(n=n()) %>%
  mutate(coverage_rate = n/sum(n))

## `summarise()` regrouping output by 'X_state' (override with `.groups` argument)

Finally, arrange can help us find out which state has the highest health care coverage rate.

 coverage %>%
  arrange(desc(coverage_rate))

## # A tibble: 106 x 4
## # Groups:   X_state [53]
##    X_state              hlthpln1     n coverage_rate
##    <fct>                <fct>    <int>         <dbl>
##  1 Massachusetts        Yes      12146         0.959
##  2 District of Columbia Yes       4075         0.956
##  3 Puerto Rico          Yes       4775         0.951
##  4 Iowa                 Yes       6625         0.935
##  5 Vermont              Yes       5196         0.934
##  6 Minnesota            Yes      11667         0.930
##  7 Maryland             Yes      10159         0.930
##  8 Connecticut          Yes       6064         0.924
##  9 North Dakota         Yes       6195         0.917
## 10 Hawaii               Yes       6495         0.916
## #  with 96 more rows
…
